VNH3SP30.c:25:6:VNH3SP30_begin	16	static
VNH3SP30.c:47:9:VNH3SP30_setSpeed	16	static
VNH3SP30.c:67:9:VNH3SP30_brake	16	static
VNH3SP30.c:78:9:VNH3SP30_status	8	static
VNH3SP30.c:82:10:VNH3SP30_motorCurrent	16	static
